﻿{
  "$schema": "http://json.schemastore.org/launchsettings.json",
  "iisSettings": {
    "windowsAuthentication": false,
    "anonymousAuthentication": true,
    "iisExpress": {
      "applicationUrl": "http://localhost:50610"
    }
  },
  "profiles": {
    "IIS Express": {
      "commandName": "IISExpress",
      "launchBrowser": true,
      "launchUrl": "api/pages",
      "environmentVariables": {
        "ASPNETCORE_ENVIRONMENT": "Development"
      }
    }
  },
  "MongoAPI": {
    "commandName": "Project",
    "launchBrowser": true,
    "launchUrl": "api/pages",
    "applicationUrl": " http://localhost:<port>/api/pages",
    "environmentVariables": {
      "ASPNETCORE_ENVIRONMENT": "Development"
    }
  }
}